%YAML 1.1
%TAG !u! tag:unity3d.com,2011:
--- !u!74 &7400000
AnimationClip:
  m_ObjectHideFlags: 0
  m_PrefabParentObject: {fileID: 0}
  m_PrefabInternal: {fileID: 0}
  m_Name: New Animation
  serializedVersion: 6
  m_Legacy: 0
  m_Compressed: 0
  m_UseHighQualityCurve: 1
  m_RotationCurves: []
  m_CompressedRotationCurves: []
  m_PositionCurves: []
  m_ScaleCurves: []
  m_FloatCurves: []
  m_PPtrCurves:
  - curve:
    - time: 0
      value: {fileID: 21300000, guid: 631f4702e4620ab499833642158b04bb, type: 3}
    - time: .0833333358
      value: {fileID: 21300000, guid: 447ba56973293f941b269a221501f2ff, type: 3}
    - time: .166666672
      value: {fileID: 21300000, guid: cb83a1c9ee6ad6e4c9d5463046e960c3, type: 3}
    - time: .25
      value: {fileID: 21300000, guid: 84c8dcc57f8d7d4449a9547a758e6c0e, type: 3}
    - time: .333333343
      value: {fileID: 21300000, guid: 3acbeba540ad7054dbc25af24f3f0c62, type: 3}
    - time: .416666657
      value: {fileID: 21300000, guid: b4c4413de8eb2354a8b4880ad25bea8c, type: 3}
    - time: .5
      value: {fileID: 21300000, guid: 0c680754501112943943235b01194dcd, type: 3}
    - time: .583333313
      value: {fileID: 21300000, guid: 948a716544340a24d9938ef2d63c67aa, type: 3}
    - time: .666666687
      value: {fileID: 21300000, guid: 701f19e420b386642a9f712719c2801e, type: 3}
    attribute: m_Sprite
    path: 
    classID: 212
    script: {fileID: 0}
  m_SampleRate: 12
  m_WrapMode: 0
  m_Bounds:
    m_Center: {x: 0, y: 0, z: 0}
    m_Extent: {x: 0, y: 0, z: 0}
  m_ClipBindingConstant:
    genericBindings:
    - path: 0
      attribute: 0
      script: {fileID: 0}
      classID: 212
      customType: 23
      isPPtrCurve: 1
    pptrCurveMapping:
    - {fileID: 21300000, guid: 631f4702e4620ab499833642158b04bb, type: 3}
    - {fileID: 21300000, guid: 447ba56973293f941b269a221501f2ff, type: 3}
    - {fileID: 21300000, guid: cb83a1c9ee6ad6e4c9d5463046e960c3, type: 3}
    - {fileID: 21300000, guid: 84c8dcc57f8d7d4449a9547a758e6c0e, type: 3}
    - {fileID: 21300000, guid: 3acbeba540ad7054dbc25af24f3f0c62, type: 3}
    - {fileID: 21300000, guid: b4c4413de8eb2354a8b4880ad25bea8c, type: 3}
    - {fileID: 21300000, guid: 0c680754501112943943235b01194dcd, type: 3}
    - {fileID: 21300000, guid: 948a716544340a24d9938ef2d63c67aa, type: 3}
    - {fileID: 21300000, guid: 701f19e420b386642a9f712719c2801e, type: 3}
  m_AnimationClipSettings:
    serializedVersion: 2
    m_StartTime: 0
    m_StopTime: .75
    m_OrientationOffsetY: 0
    m_Level: 0
    m_CycleOffset: 0
    m_LoopTime: 1
    m_LoopBlend: 0
    m_LoopBlendOrientation: 0
    m_LoopBlendPositionY: 0
    m_LoopBlendPositionXZ: 0
    m_KeepOriginalOrientation: 0
    m_KeepOriginalPositionY: 1
    m_KeepOriginalPositionXZ: 0
    m_HeightFromFeet: 0
    m_Mirror: 0
  m_EditorCurves: []
  m_EulerEditorCurves: []
  m_HasGenericRootTransform: 0
  m_HasMotionFloatCurves: 0
  m_GenerateMotionCurves: 0
  m_Events: []
